{
    "Name": "recipe XX",
    "Comment": "2021-10-28 오후 2:09:45",
    "Filters": [
        {
            "Name": "Source",
            "Key": "8106a9691a5925c8",
            "Type": "VisionRecipeEditor.ImageFilter.SourceFilter",
            "Enable": true,
            "IsEndPoint": false,
            "Params": [
                {
                    "Key": "Path",
                    "Value": "C:\\Repos\\VisionLibrary\\Sample\\target.jpg"
                }
            ],
            "Pins": [
                {
                    "Type": "OUT",
                    "Name": "Out",
                    "Key": "OUT_Out"
                }
            ]
        },
        {
            "Name": "Gaussian",
            "Key": "6d9ce483fbf8a040",
            "Type": "VisionRecipeEditor.ImageFilter.GaussianBlurFilter",
            "Enable": true,
            "IsEndPoint": false,
            "Params": [
                {
                    "Key": "Kernel",
                    "Value": "3"
                },
                {
                    "Key": "Sigma",
                    "Value": "3"
                }
            ],
            "Pins": [
                {
                    "Type": "IN",
                    "Name": "In",
                    "Link": {
                        "FilterKey": "8106a9691a5925c8",
                        "PinKey": "OUT_Out"
                    },
                    "Key": "IN_In"
                },
                {
                    "Type": "OUT",
                    "Name": "Out",
                    "Key": "OUT_Out"
                }
            ]
        },
        {
            "Name": "Binary",
            "Key": "880d47eeeac0a52a",
            "Type": "VisionRecipeEditor.ImageFilter.ThresholdFilter",
            "Enable": true,
            "IsEndPoint": true,
            "Params": [
                {
                    "Key": "Threshold",
                    "Value": "146"
                }
            ],
            "Pins": [
                {
                    "Type": "IN",
                    "Name": "In",
                    "Link": {
                        "FilterKey": "6d9ce483fbf8a040",
                        "PinKey": "OUT_Out"
                    },
                    "Key": "IN_In"
                },
                {
                    "Type": "OUT",
                    "Name": "Out",
                    "Key": "OUT_Out"
                }
            ]
        }
    ]
}